M48
;Layer_Color=9474304
;FILE_FORMAT=4:4
METRIC,LZ
;TYPE=PLATED
T1F00S00C0.1500
T2F00S00C2.0000
%
T01
X00041965Y000185
X00048235
X00056965
X00063235
X000676Y000246
X0007Y000145
Y00008
X000825Y0001173
Y00018
X000826Y000246
X000976
X00101965Y000185
X00108235
X001126Y000246
X001226
X001325Y000245
X001425
X001375Y000165
X001275Y00015
X001175
X001315Y00053
Y00058
X001325Y000645
Y000695
X001355Y000825
X00141Y0010423
Y001105
Y00117
Y001235
X00135Y00127
X00136Y001375
X00141Y00144
X001415Y001505
Y0015677
X00141Y001635
Y0016977
Y001765
Y00183
X00149Y001935
X001555
X00162
X00163Y00142
X00147Y0013
X00134Y00147
X00117Y001395
X00112
X000985Y00145
X000925
X00087
X00112Y001595
X00117
X00046Y001645
Y00174
X000545
X00054Y001825
X000625
X000645Y00086
Y000695
Y000645
X00064Y00058
Y00053
X000526Y000246
X00036576Y00024384
X000225Y000495
X000165
X00018Y00069
X00154Y000665
X00162Y00077
X00165Y000445
Y000375
Y00031
X00195Y000475
Y000525
Y000575
Y000905
X001925Y001175
Y00123
Y001305
X001855Y001235
Y001185
X00195Y00166
T02
X00015Y001045
X00185Y00185
M30
